{
  "variants": {
    "facing=north": {
      "model": "themoneymod:block/digital_stock_set" },
    "facing=east": {
        "model": "themoneymod:block/digital_stock_set",
    "y": 90
    },
    "facing=south": {
      "model": "themoneymod:block/digital_stock_set",
    "y": 180
    },
    "facing=west": {
      "model": "themoneymod:block/digital_stock_set",
      "y": 270
    }

  }

}