{
  "variants": {
    "facing=north": {
      "model": "themoneymod:block/secured_stock_exchange" },
    "facing=east": {
        "model": "themoneymod:block/secured_stock_exchange",
    "y": 90
    },
    "facing=south": {
      "model": "themoneymod:block/secured_stock_exchange",
    "y": 180
    },
    "facing=west": {
      "model": "themoneymod:block/secured_stock_exchange",
      "y": 270
    }

  }

}